Name,Category,Image,Position,Status
animals1,26,animals1.swf,26,1
animals2,26,animals2.swf,27,1
animals3,26,animals3.swf,28,1
animals4,26,animals4.swf,29,1
animals5,26,animals5.swf,30,1
animals6,26,animals6.swf,31,1
animals7,26,animals7.swf,32,1
animals8,26,animals8.swf,33,1
animals9,26,animals9.swf,34,1
animals10,26,animals10.swf,35,1
animals11,26,animals11.swf,36,1
animals12,26,animals12.swf,37,1
animals13,26,animals13.swf,38,1
animals14,26,animals14.swf,39,1
animals15,26,animals15.swf,40,1
animals16,26,animals16.swf,41,1
animals17,26,animals17.swf,42,1
animals18,26,animals18.swf,43,1
animals19,26,animals19.swf,44,1
animals20,26,animals20.swf,45,1
animals21,26,animals21.swf,46,1
